module gitlab.com/distributed_lab/json-api-connector

go 1.19

require (
	github.com/fatih/structs v1.1.0
	github.com/pkg/errors v0.9.1
	github.com/spf13/cast v1.5.1
	gitlab.com/distributed_lab/figure v2.1.2+incompatible
	gitlab.com/distributed_lab/kit v1.11.2
	gitlab.com/distributed_lab/logan v3.8.1+incompatible
)

require (
	github.com/fsnotify/fsnotify v1.4.7 // indirect
	github.com/getsentry/sentry-go v0.7.0 // indirect
	github.com/hashicorp/hcl v1.0.0 // indirect
	github.com/konsorten/go-windows-terminal-sequences v1.0.3 // indirect
	github.com/magiconair/properties v1.8.0 // indirect
	github.com/mitchellh/mapstructure v1.1.2 // indirect
	github.com/pelletier/go-toml v1.2.0 // indirect
	github.com/sirupsen/logrus v1.6.0 // indirect
	github.com/spf13/afero v1.1.2 // indirect
	github.com/spf13/jwalterweatherman v1.0.0 // indirect
	github.com/spf13/pflag v1.0.3 // indirect
	github.com/spf13/viper v1.3.2 // indirect
	golang.org/x/sys v0.0.0-20200826173525-f9321e4c35a6 // indirect
	golang.org/x/text v0.3.3 // indirect
	gopkg.in/yaml.v2 v2.2.8 // indirect
)
